{
    "version": 1,
    "license": "CC-BY-NC-4.0",
    "copyright": "Taken from SS13 BlueMoon https://github.com/BlueMoon-Labs/BlueMoon-Station-13.git, bolt-open modified from icon.png by Flareguy",
    "size": {
        "x": 32,
        "y": 32
    },
    "states": [
        {
            "name": "icon"
        },
        {
            "name": "bolt-open"
        },
        {
            "name": "equipped-BACKPACK",
            "directions": 4
        },
        {
            "name": "inhand-left",
            "directions": 4
        },
        {
            "name": "inhand-right",
            "directions": 4
        }
    ]
}
