{
  "version": 1,
  "license": "CC-BY-SA-3.0",
  "copyright": "Made by Username228",
  "size": {
    "x": 32,
    "y": 32
  },
  "states": [
    {
      "name": "dead"
    },
    {
      "name": "harvest"
    },
    {
      "name": "produce",
      "delays": [[ 6, 0.3, 0.3, 0.3 ]]
    },
    {
      "name": "seed"
    },
    {
      "name": "stage-1"
    },
    {
      "name": "stage-2"
    },
    {
      "name": "stage-3"
    },
    {
      "name": "stage-4"
    },
    {
      "name": "stage-5"
    },
    {
      "name": "stage-6"
    }
  ]
}
