{
  "license": "CC-BY-SA-3.0",
  "copyright": "Taken from https://github.com/ss220club/Skyrat-tg.git",
  "version": 1,
  "size": {"x": 32, "y": 32},
  "states": [
    {
      "name": "icon"
    },
    {
      "name": "equipped-OUTERCLOTHING",
      "directions": 4
    },
    {
      "name": "inhand-left",
      "directions": 4
    },
    {
      "name": "inhand-right",
      "directions": 4
    }
  ]
}
